%YAML 1.1
%TAG !u! tag:unity3d.com,2011:
--- !u!1 &3114897744007242241
GameObject:
  m_ObjectHideFlags: 0
  m_CorrespondingSourceObject: {fileID: 0}
  m_PrefabInstance: {fileID: 0}
  m_PrefabAsset: {fileID: 0}
  serializedVersion: 6
  m_Component:
  - component: {fileID: 1786569465685514793}
  - component: {fileID: 6434136878436791268}
  - component: {fileID: 190875664564194760}
  - component: {fileID: 6516818509440389969}
  - component: {fileID: 1437820578114111049}
  - component: {fileID: -5805328654311024410}
  m_Layer: 8
  m_Name: Block
  m_TagString: block
  m_Icon: {fileID: 0}
  m_NavMeshLayer: 0
  m_StaticEditorFlags: 0
  m_IsActive: 1
--- !u!4 &1786569465685514793
Transform:
  m_ObjectHideFlags: 0
  m_CorrespondingSourceObject: {fileID: 0}
  m_PrefabInstance: {fileID: 0}
  m_PrefabAsset: {fileID: 0}
  m_GameObject: {fileID: 3114897744007242241}
  m_LocalRotation: {x: 0, y: 0, z: 0, w: 1}
  m_LocalPosition: {x: 0, y: 0, z: 0}
  m_LocalScale: {x: 1, y: 1, z: 1}
  m_Children:
  - {fileID: 3668961951702330308}
  - {fileID: 3937571662047160118}
  - {fileID: 5068866997563363915}
  - {fileID: 2216368676985210122}
  m_Father: {fileID: 0}
  m_RootOrder: 0
  m_LocalEulerAnglesHint: {x: 0, y: 0, z: 0}
--- !u!114 &6434136878436791268
MonoBehaviour:
  m_ObjectHideFlags: 0
  m_CorrespondingSourceObject: {fileID: 0}
  m_PrefabInstance: {fileID: 0}
  m_PrefabAsset: {fileID: 0}
  m_GameObject: {fileID: 3114897744007242241}
  m_Enabled: 1
  m_EditorHideFlags: 0
  m_Script: {fileID: 11500000, guid: 409a53c2fc720400bb482962c5563548, type: 3}
  m_Name: 
  m_EditorClassIdentifier: 
  settings:
    _blur: 0
    _endAngle: 360
    _fillColor: {r: 1, g: 0.36141926, b: 0.3254717, a: 1}
    _fillColor2: {r: 0.5377358, g: 0.10577676, b: 0, a: 1}
    _fillOffset: {x: 0, y: 0}
    _fillPathLoops: 0
    _fillRotation: 0
    _fillScale: {x: 1, y: 1}
    _fillTexture: {fileID: 0}
    _fillType: 4
    _gradientAxis: 0
    _gradientStart: 0
    _gradientType: 0
    _gridSize: 0.5
    _innerCutout: {x: 0, y: 0}
    _invertArc: 0
    _lineSize: 0.1
    _obsoleteNumSides: -1
    _outlineColor: {r: 1, g: 1, b: 1, a: 1}
    _outlineSize: 0
    _pathSegments:
    - p0: {x: -0.3, y: 0, z: 0}
      p1: {x: 0, y: 0, z: 0}
      p2: {x: 0.3, y: 0, z: 0}
    _pathThickness: 0.1
    _polygonPreset: 4
    _polyVertices:
    - {x: -0.000000021855694, y: 0.5}
    - {x: -0.4330127, y: 0.25000003}
    - {x: -0.43301263, y: -0.2500001}
    - {x: 0.0000000059624403, y: -0.5}
    - {x: 0.43301278, y: -0.24999988}
    - {x: 0.4330127, y: 0.25000003}
    _roundness: 0
    _roundnessBottomLeft: 0
    _roundnessBottomRight: 0
    _roundnessPerCorner: 0
    _roundnessTopLeft: 0
    _roundnessTopRight: 0
    _shapeType: 2
    _startAngle: 0
    _triangleOffset: 0.5
    _usePolygonMap: 0
  wasConverted: 0
  preConvertedScale: {x: 0, y: 0, z: 0}
--- !u!212 &190875664564194760
SpriteRenderer:
  m_ObjectHideFlags: 0
  m_CorrespondingSourceObject: {fileID: 0}
  m_PrefabInstance: {fileID: 0}
  m_PrefabAsset: {fileID: 0}
  m_GameObject: {fileID: 3114897744007242241}
  m_Enabled: 1
  m_CastShadows: 0
  m_ReceiveShadows: 0
  m_DynamicOccludee: 1
  m_MotionVectors: 1
  m_LightProbeUsage: 0
  m_ReflectionProbeUsage: 0
  m_RenderingLayerMask: 1
  m_RendererPriority: 0
  m_Materials:
  - {fileID: 0}
  m_StaticBatchInfo:
    firstSubMesh: 0
    subMeshCount: 0
  m_StaticBatchRoot: {fileID: 0}
  m_ProbeAnchor: {fileID: 0}
  m_LightProbeVolumeOverride: {fileID: 0}
  m_ScaleInLightmap: 1
  m_ReceiveGI: 1
  m_PreserveUVs: 0
  m_IgnoreNormalsForChartDetection: 0
  m_ImportantGI: 0
  m_StitchLightmapSeams: 1
  m_SelectedEditorRenderState: 0
  m_MinimumChartSize: 4
  m_AutoUVMaxDistance: 0.5
  m_AutoUVMaxAngle: 89
  m_LightmapParameters: {fileID: 0}
  m_SortingLayerID: 0
  m_SortingLayer: 0
  m_SortingOrder: 0
  m_Sprite: {fileID: 21300000, guid: c3c34e396a46f4439925b24e67779a5d, type: 3}
  m_Color: {r: 1, g: 1, b: 1, a: 1}
  m_FlipX: 0
  m_FlipY: 0
  m_DrawMode: 0
  m_Size: {x: 1, y: 1}
  m_AdaptiveModeThreshold: 0.5
  m_SpriteTileMode: 0
  m_WasSpriteAssigned: 1
  m_MaskInteraction: 0
  m_SpriteSortPoint: 0
--- !u!61 &6516818509440389969
BoxCollider2D:
  m_ObjectHideFlags: 0
  m_CorrespondingSourceObject: {fileID: 0}
  m_PrefabInstance: {fileID: 0}
  m_PrefabAsset: {fileID: 0}
  m_GameObject: {fileID: 3114897744007242241}
  m_Enabled: 1
  m_Density: 1
  m_Material: {fileID: 0}
  m_IsTrigger: 0
  m_UsedByEffector: 0
  m_UsedByComposite: 0
  m_Offset: {x: 0, y: 0}
  m_SpriteTilingProperty:
    border: {x: 0, y: 0, z: 0, w: 0}
    pivot: {x: 0.5, y: 0.5}
    oldSize: {x: 1, y: 1}
    newSize: {x: 1, y: 1}
    adaptiveTilingThreshold: 0.5
    drawMode: 0
    adaptiveTiling: 0
  m_AutoTiling: 0
  serializedVersion: 2
  m_Size: {x: 1, y: 1}
  m_EdgeRadius: 0
--- !u!114 &1437820578114111049
MonoBehaviour:
  m_ObjectHideFlags: 0
  m_CorrespondingSourceObject: {fileID: 0}
  m_PrefabInstance: {fileID: 0}
  m_PrefabAsset: {fileID: 0}
  m_GameObject: {fileID: 3114897744007242241}
  m_Enabled: 1
  m_EditorHideFlags: 0
  m_Script: {fileID: 11500000, guid: c69623fa51f5067419592571be941c2c, type: 3}
  m_Name: 
  m_EditorClassIdentifier: 
  connectors:
  - {fileID: 1052375995737564939}
  - {fileID: 8802343458431229572}
  - {fileID: 6197215150939009098}
  - {fileID: 9108496545201115766}
  connectedTo: []
  id: 0
--- !u!50 &-5805328654311024410
Rigidbody2D:
  serializedVersion: 4
  m_ObjectHideFlags: 0
  m_CorrespondingSourceObject: {fileID: 0}
  m_PrefabInstance: {fileID: 0}
  m_PrefabAsset: {fileID: 0}
  m_GameObject: {fileID: 3114897744007242241}
  m_BodyType: 1
  m_Simulated: 1
  m_UseFullKinematicContacts: 1
  m_UseAutoMass: 0
  m_Mass: 1
  m_LinearDrag: 0
  m_AngularDrag: 0.05
  m_GravityScale: 1
  m_Material: {fileID: 0}
  m_Interpolate: 0
  m_SleepingMode: 1
  m_CollisionDetection: 0
  m_Constraints: 7
--- !u!1001 &1879876048011793669
PrefabInstance:
  m_ObjectHideFlags: 0
  serializedVersion: 2
  m_Modification:
    m_TransformParent: {fileID: 1786569465685514793}
    m_Modifications:
    - target: {fileID: 3221122524829266483, guid: 9731e3abea5511c49b94351f6637f2cb,
        type: 3}
      propertyPath: m_LocalPosition.x
      value: -1
      objectReference: {fileID: 0}
    - target: {fileID: 3221122524829266483, guid: 9731e3abea5511c49b94351f6637f2cb,
        type: 3}
      propertyPath: m_LocalPosition.y
      value: 0
      objectReference: {fileID: 0}
    - target: {fileID: 3221122524829266483, guid: 9731e3abea5511c49b94351f6637f2cb,
        type: 3}
      propertyPath: m_LocalPosition.z
      value: 0
      objectReference: {fileID: 0}
    - target: {fileID: 3221122524829266483, guid: 9731e3abea5511c49b94351f6637f2cb,
        type: 3}
      propertyPath: m_LocalRotation.x
      value: -0
      objectReference: {fileID: 0}
    - target: {fileID: 3221122524829266483, guid: 9731e3abea5511c49b94351f6637f2cb,
        type: 3}
      propertyPath: m_LocalRotation.y
      value: -0
      objectReference: {fileID: 0}
    - target: {fileID: 3221122524829266483, guid: 9731e3abea5511c49b94351f6637f2cb,
        type: 3}
      propertyPath: m_LocalRotation.z
      value: -0
      objectReference: {fileID: 0}
    - target: {fileID: 3221122524829266483, guid: 9731e3abea5511c49b94351f6637f2cb,
        type: 3}
      propertyPath: m_LocalRotation.w
      value: 1
      objectReference: {fileID: 0}
    - target: {fileID: 3221122524829266483, guid: 9731e3abea5511c49b94351f6637f2cb,
        type: 3}
      propertyPath: m_RootOrder
      value: 1
      objectReference: {fileID: 0}
    - target: {fileID: 3221122524829266483, guid: 9731e3abea5511c49b94351f6637f2cb,
        type: 3}
      propertyPath: m_LocalEulerAnglesHint.x
      value: 0
      objectReference: {fileID: 0}
    - target: {fileID: 3221122524829266483, guid: 9731e3abea5511c49b94351f6637f2cb,
        type: 3}
      propertyPath: m_LocalEulerAnglesHint.y
      value: 0
      objectReference: {fileID: 0}
    - target: {fileID: 3221122524829266483, guid: 9731e3abea5511c49b94351f6637f2cb,
        type: 3}
      propertyPath: m_LocalEulerAnglesHint.z
      value: 0
      objectReference: {fileID: 0}
    - target: {fileID: 7457003776190171930, guid: 9731e3abea5511c49b94351f6637f2cb,
        type: 3}
      propertyPath: m_Materials.Array.data[0]
      value: 
      objectReference: {fileID: 0}
    - target: {fileID: 8927733563199826987, guid: 9731e3abea5511c49b94351f6637f2cb,
        type: 3}
      propertyPath: m_Name
      value: LeftConnector
      objectReference: {fileID: 0}
    m_RemovedComponents: []
  m_SourcePrefab: {fileID: 100100000, guid: 9731e3abea5511c49b94351f6637f2cb, type: 3}
--- !u!4 &3937571662047160118 stripped
Transform:
  m_CorrespondingSourceObject: {fileID: 3221122524829266483, guid: 9731e3abea5511c49b94351f6637f2cb,
    type: 3}
  m_PrefabInstance: {fileID: 1879876048011793669}
  m_PrefabAsset: {fileID: 0}
--- !u!114 &9108496545201115766 stripped
MonoBehaviour:
  m_CorrespondingSourceObject: {fileID: -1985726695309064333, guid: 9731e3abea5511c49b94351f6637f2cb,
    type: 3}
  m_PrefabInstance: {fileID: 1879876048011793669}
  m_PrefabAsset: {fileID: 0}
  m_GameObject: {fileID: 0}
  m_Enabled: 1
  m_EditorHideFlags: 0
  m_Script: {fileID: 11500000, guid: 68f96c5f4b3672d4d81cc47a336c768d, type: 3}
  m_Name: 
  m_EditorClassIdentifier: 
--- !u!1001 &2186916165795781111
PrefabInstance:
  m_ObjectHideFlags: 0
  serializedVersion: 2
  m_Modification:
    m_TransformParent: {fileID: 1786569465685514793}
    m_Modifications:
    - target: {fileID: 3221122524829266483, guid: 9731e3abea5511c49b94351f6637f2cb,
        type: 3}
      propertyPath: m_LocalPosition.x
      value: 1
      objectReference: {fileID: 0}
    - target: {fileID: 3221122524829266483, guid: 9731e3abea5511c49b94351f6637f2cb,
        type: 3}
      propertyPath: m_LocalPosition.y
      value: 0
      objectReference: {fileID: 0}
    - target: {fileID: 3221122524829266483, guid: 9731e3abea5511c49b94351f6637f2cb,
        type: 3}
      propertyPath: m_LocalPosition.z
      value: 0
      objectReference: {fileID: 0}
    - target: {fileID: 3221122524829266483, guid: 9731e3abea5511c49b94351f6637f2cb,
        type: 3}
      propertyPath: m_LocalRotation.x
      value: -0
      objectReference: {fileID: 0}
    - target: {fileID: 3221122524829266483, guid: 9731e3abea5511c49b94351f6637f2cb,
        type: 3}
      propertyPath: m_LocalRotation.y
      value: -0
      objectReference: {fileID: 0}
    - target: {fileID: 3221122524829266483, guid: 9731e3abea5511c49b94351f6637f2cb,
        type: 3}
      propertyPath: m_LocalRotation.z
      value: -0
      objectReference: {fileID: 0}
    - target: {fileID: 3221122524829266483, guid: 9731e3abea5511c49b94351f6637f2cb,
        type: 3}
      propertyPath: m_LocalRotation.w
      value: 1
      objectReference: {fileID: 0}
    - target: {fileID: 3221122524829266483, guid: 9731e3abea5511c49b94351f6637f2cb,
        type: 3}
      propertyPath: m_RootOrder
      value: 0
      objectReference: {fileID: 0}
    - target: {fileID: 3221122524829266483, guid: 9731e3abea5511c49b94351f6637f2cb,
        type: 3}
      propertyPath: m_LocalEulerAnglesHint.x
      value: 0
      objectReference: {fileID: 0}
    - target: {fileID: 3221122524829266483, guid: 9731e3abea5511c49b94351f6637f2cb,
        type: 3}
      propertyPath: m_LocalEulerAnglesHint.y
      value: 0
      objectReference: {fileID: 0}
    - target: {fileID: 3221122524829266483, guid: 9731e3abea5511c49b94351f6637f2cb,
        type: 3}
      propertyPath: m_LocalEulerAnglesHint.z
      value: 0
      objectReference: {fileID: 0}
    - target: {fileID: 7457003776190171930, guid: 9731e3abea5511c49b94351f6637f2cb,
        type: 3}
      propertyPath: m_Materials.Array.data[0]
      value: 
      objectReference: {fileID: 0}
    - target: {fileID: 8927733563199826987, guid: 9731e3abea5511c49b94351f6637f2cb,
        type: 3}
      propertyPath: m_Name
      value: RightConnector
      objectReference: {fileID: 0}
    m_RemovedComponents: []
  m_SourcePrefab: {fileID: 100100000, guid: 9731e3abea5511c49b94351f6637f2cb, type: 3}
--- !u!4 &3668961951702330308 stripped
Transform:
  m_CorrespondingSourceObject: {fileID: 3221122524829266483, guid: 9731e3abea5511c49b94351f6637f2cb,
    type: 3}
  m_PrefabInstance: {fileID: 2186916165795781111}
  m_PrefabAsset: {fileID: 0}
--- !u!114 &8802343458431229572 stripped
MonoBehaviour:
  m_CorrespondingSourceObject: {fileID: -1985726695309064333, guid: 9731e3abea5511c49b94351f6637f2cb,
    type: 3}
  m_PrefabInstance: {fileID: 2186916165795781111}
  m_PrefabAsset: {fileID: 0}
  m_GameObject: {fileID: 0}
  m_Enabled: 1
  m_EditorHideFlags: 0
  m_Script: {fileID: 11500000, guid: 68f96c5f4b3672d4d81cc47a336c768d, type: 3}
  m_Name: 
  m_EditorClassIdentifier: 
--- !u!1001 &3634869232991516473
PrefabInstance:
  m_ObjectHideFlags: 0
  serializedVersion: 2
  m_Modification:
    m_TransformParent: {fileID: 1786569465685514793}
    m_Modifications:
    - target: {fileID: 3221122524829266483, guid: 9731e3abea5511c49b94351f6637f2cb,
        type: 3}
      propertyPath: m_LocalPosition.x
      value: 0
      objectReference: {fileID: 0}
    - target: {fileID: 3221122524829266483, guid: 9731e3abea5511c49b94351f6637f2cb,
        type: 3}
      propertyPath: m_LocalPosition.y
      value: -1
      objectReference: {fileID: 0}
    - target: {fileID: 3221122524829266483, guid: 9731e3abea5511c49b94351f6637f2cb,
        type: 3}
      propertyPath: m_LocalPosition.z
      value: 0
      objectReference: {fileID: 0}
    - target: {fileID: 3221122524829266483, guid: 9731e3abea5511c49b94351f6637f2cb,
        type: 3}
      propertyPath: m_LocalRotation.x
      value: -0
      objectReference: {fileID: 0}
    - target: {fileID: 3221122524829266483, guid: 9731e3abea5511c49b94351f6637f2cb,
        type: 3}
      propertyPath: m_LocalRotation.y
      value: -0
      objectReference: {fileID: 0}
    - target: {fileID: 3221122524829266483, guid: 9731e3abea5511c49b94351f6637f2cb,
        type: 3}
      propertyPath: m_LocalRotation.z
      value: -0
      objectReference: {fileID: 0}
    - target: {fileID: 3221122524829266483, guid: 9731e3abea5511c49b94351f6637f2cb,
        type: 3}
      propertyPath: m_LocalRotation.w
      value: 1
      objectReference: {fileID: 0}
    - target: {fileID: 3221122524829266483, guid: 9731e3abea5511c49b94351f6637f2cb,
        type: 3}
      propertyPath: m_RootOrder
      value: 3
      objectReference: {fileID: 0}
    - target: {fileID: 3221122524829266483, guid: 9731e3abea5511c49b94351f6637f2cb,
        type: 3}
      propertyPath: m_LocalEulerAnglesHint.x
      value: 0
      objectReference: {fileID: 0}
    - target: {fileID: 3221122524829266483, guid: 9731e3abea5511c49b94351f6637f2cb,
        type: 3}
      propertyPath: m_LocalEulerAnglesHint.y
      value: 0
      objectReference: {fileID: 0}
    - target: {fileID: 3221122524829266483, guid: 9731e3abea5511c49b94351f6637f2cb,
        type: 3}
      propertyPath: m_LocalEulerAnglesHint.z
      value: 0
      objectReference: {fileID: 0}
    - target: {fileID: 7457003776190171930, guid: 9731e3abea5511c49b94351f6637f2cb,
        type: 3}
      propertyPath: m_Materials.Array.data[0]
      value: 
      objectReference: {fileID: 0}
    - target: {fileID: 8927733563199826987, guid: 9731e3abea5511c49b94351f6637f2cb,
        type: 3}
      propertyPath: m_Name
      value: BottomConnector
      objectReference: {fileID: 0}
    m_RemovedComponents: []
  m_SourcePrefab: {fileID: 100100000, guid: 9731e3abea5511c49b94351f6637f2cb, type: 3}
--- !u!4 &2216368676985210122 stripped
Transform:
  m_CorrespondingSourceObject: {fileID: 3221122524829266483, guid: 9731e3abea5511c49b94351f6637f2cb,
    type: 3}
  m_PrefabInstance: {fileID: 3634869232991516473}
  m_PrefabAsset: {fileID: 0}
--- !u!114 &6197215150939009098 stripped
MonoBehaviour:
  m_CorrespondingSourceObject: {fileID: -1985726695309064333, guid: 9731e3abea5511c49b94351f6637f2cb,
    type: 3}
  m_PrefabInstance: {fileID: 3634869232991516473}
  m_PrefabAsset: {fileID: 0}
  m_GameObject: {fileID: 0}
  m_Enabled: 1
  m_EditorHideFlags: 0
  m_Script: {fileID: 11500000, guid: 68f96c5f4b3672d4d81cc47a336c768d, type: 3}
  m_Name: 
  m_EditorClassIdentifier: 
--- !u!1001 &7704395018466893944
PrefabInstance:
  m_ObjectHideFlags: 0
  serializedVersion: 2
  m_Modification:
    m_TransformParent: {fileID: 1786569465685514793}
    m_Modifications:
    - target: {fileID: 3221122524829266483, guid: 9731e3abea5511c49b94351f6637f2cb,
        type: 3}
      propertyPath: m_LocalPosition.x
      value: 0
      objectReference: {fileID: 0}
    - target: {fileID: 3221122524829266483, guid: 9731e3abea5511c49b94351f6637f2cb,
        type: 3}
      propertyPath: m_LocalPosition.y
      value: 1
      objectReference: {fileID: 0}
    - target: {fileID: 3221122524829266483, guid: 9731e3abea5511c49b94351f6637f2cb,
        type: 3}
      propertyPath: m_LocalPosition.z
      value: 0
      objectReference: {fileID: 0}
    - target: {fileID: 3221122524829266483, guid: 9731e3abea5511c49b94351f6637f2cb,
        type: 3}
      propertyPath: m_LocalRotation.x
      value: -0
      objectReference: {fileID: 0}
    - target: {fileID: 3221122524829266483, guid: 9731e3abea5511c49b94351f6637f2cb,
        type: 3}
      propertyPath: m_LocalRotation.y
      value: -0
      objectReference: {fileID: 0}
    - target: {fileID: 3221122524829266483, guid: 9731e3abea5511c49b94351f6637f2cb,
        type: 3}
      propertyPath: m_LocalRotation.z
      value: -0
      objectReference: {fileID: 0}
    - target: {fileID: 3221122524829266483, guid: 9731e3abea5511c49b94351f6637f2cb,
        type: 3}
      propertyPath: m_LocalRotation.w
      value: 1
      objectReference: {fileID: 0}
    - target: {fileID: 3221122524829266483, guid: 9731e3abea5511c49b94351f6637f2cb,
        type: 3}
      propertyPath: m_RootOrder
      value: 2
      objectReference: {fileID: 0}
    - target: {fileID: 3221122524829266483, guid: 9731e3abea5511c49b94351f6637f2cb,
        type: 3}
      propertyPath: m_LocalEulerAnglesHint.x
      value: 0
      objectReference: {fileID: 0}
    - target: {fileID: 3221122524829266483, guid: 9731e3abea5511c49b94351f6637f2cb,
        type: 3}
      propertyPath: m_LocalEulerAnglesHint.y
      value: 0
      objectReference: {fileID: 0}
    - target: {fileID: 3221122524829266483, guid: 9731e3abea5511c49b94351f6637f2cb,
        type: 3}
      propertyPath: m_LocalEulerAnglesHint.z
      value: 0
      objectReference: {fileID: 0}
    - target: {fileID: 7457003776190171930, guid: 9731e3abea5511c49b94351f6637f2cb,
        type: 3}
      propertyPath: m_Materials.Array.data[0]
      value: 
      objectReference: {fileID: 0}
    - target: {fileID: 8927733563199826987, guid: 9731e3abea5511c49b94351f6637f2cb,
        type: 3}
      propertyPath: m_Name
      value: TopConnector
      objectReference: {fileID: 0}
    m_RemovedComponents: []
  m_SourcePrefab: {fileID: 100100000, guid: 9731e3abea5511c49b94351f6637f2cb, type: 3}
--- !u!4 &5068866997563363915 stripped
Transform:
  m_CorrespondingSourceObject: {fileID: 3221122524829266483, guid: 9731e3abea5511c49b94351f6637f2cb,
    type: 3}
  m_PrefabInstance: {fileID: 7704395018466893944}
  m_PrefabAsset: {fileID: 0}
--- !u!114 &1052375995737564939 stripped
MonoBehaviour:
  m_CorrespondingSourceObject: {fileID: -1985726695309064333, guid: 9731e3abea5511c49b94351f6637f2cb,
    type: 3}
  m_PrefabInstance: {fileID: 7704395018466893944}
  m_PrefabAsset: {fileID: 0}
  m_GameObject: {fileID: 0}
  m_Enabled: 1
  m_EditorHideFlags: 0
  m_Script: {fileID: 11500000, guid: 68f96c5f4b3672d4d81cc47a336c768d, type: 3}
  m_Name: 
  m_EditorClassIdentifier: 
